…
I then loaded the data from NYC Open Data, which is a pretty awesome data portal; among other things, it lets you do direct API calls to specific datasets.  They have 311 calls from 2010 to the present - I downloaded only those where the complaint was "Illegal Fireworks."
 

{% highlight r %}
fireworks311 <- read_csv("https://data.cityofnewyork.us/resource/fhrw-4uyv.csv?$limit=2000&complaint_type=Illegal%20Fireworks")
 
select(fireworks311, created_date, latitude, longitude, complaint_type)
{% endhighlight %}



{% highlight text %}
## # A tibble: 1,786 x 4
##    created_date        latitude longitude complaint_type   
##    <dttm>                 <dbl>     <dbl> <chr>            
##  1 2018-07-01 23:28:39     40.8     -73.9 Illegal Fireworks
##  2 2018-07-01 15:19:30     40.9     -73.9 Illegal Fireworks
##  3 2018-07-01 18:05:01     40.6     -74.1 Illegal Fireworks
##  4 2018-07-01 22:55:50     40.7     -73.7 Illegal Fireworks
##  5 2018-07-01 22:33:30     40.6     -73.8 Illegal Fireworks
##  6 2018-07-01 16:43:07     40.7     -74.0 Illegal Fireworks
##  7 2018-07-01 23:32:39     40.8     -74.0 Illegal Fireworks
##  8 2018-07-01 08:52:15     40.5     -74.1 Illegal Fireworks
##  9 2018-07-01 23:50:30     40.6     -74.0 Illegal Fireworks
## 10 2018-07-01 20:52:39     40.7     -73.9 Illegal Fireworks
## # ... with 1,776 more rows
…
